﻿{
  "$schema": "https://json.schemastore.org/launchsettings.json",
  "iisSettings": {
    "windowsAuthentication": false,
    "anonymousAuthentication": true,
    "iisExpress": {
      "applicationUrl": "http://localhost:45260",
      "sslPort": 44367
    }
  },
  "profiles": {
    "Development": {
      "commandName": "Project",
      "dotnetRunMessages": true,
      "launchBrowser": true,
      //"launchUrl": "swagger",
      "applicationUrl": "https://localhost:5001;http://localhost:5000",
      "environmentVariables": {
        "ASPNETCORE_ENVIRONMENT": "Development"
      }
    },
    "Staging": {
      "commandName": "Project",
      "dotnetRunMessages": true,
      "launchBrowser": true,
      //"launchUrl": "swagger",
      "applicationUrl": "https://localhost:5001;http://localhost:5000",
            "environmentVariables": {
        "ASPNETCORE_ENVIRONMENT": "Staging"
      }
    },
    "Production": {
      "commandName": "Project",
      "dotnetRunMessages": true,
      "launchBrowser": true,
      //"launchUrl": "swagger",
      "applicationUrl": "https://localhost:5001;http://localhost:5000",
            "environmentVariables": {
        "ASPNETCORE_ENVIRONMENT": "Production"
      }
    }
  }
}