<svg width="131" height="212" viewBox="0 0 131 212" fill="none" xmlns="http://www.w3.org/2000/svg">
<g clip-path="url(#clip0_2433_328)">
<path d="M38.0075 167.021L33.8758 173.985L30.1394 181.169C29.0497 183.264 29.0898 185.768 30.2462 187.827L34.2114 194.887L38.5648 201.715C39.8344 203.706 42.0226 204.923 44.3841 204.951L52.481 205.048L60.5709 204.691C62.9302 204.587 65.0782 203.301 66.2832 201.27L70.4151 194.306L74.1514 187.122C75.2411 185.026 75.201 182.523 74.0445 180.464L70.0793 173.404L65.7258 166.576C64.4562 164.584 62.2681 163.368 59.9067 163.34L51.8097 163.243L43.7198 163.6C41.3604 163.703 39.2126 164.99 38.0075 167.021Z" stroke="#091869" stroke-opacity="0.12" stroke-width="2"/>
<path d="M39.9618 80.1913L35.2486 88.1353L30.9865 96.3301C29.8968 98.4253 29.9371 100.929 31.0935 102.988L35.6166 111.042L40.5824 118.83C41.8521 120.821 44.0402 122.038 46.4016 122.066L55.6379 122.176L64.8659 121.77C67.2252 121.666 69.3731 120.379 70.5781 118.348L75.2913 110.404L79.5534 102.209C80.6431 100.114 80.6029 97.6109 79.4465 95.5518L74.9234 87.498L69.9575 79.7095C68.6879 77.7182 66.4998 76.5014 64.1383 76.4733L54.902 76.3636L45.6741 76.7699C43.3147 76.8738 41.1668 78.1603 39.9618 80.1913Z" stroke="#091869" stroke-opacity="0.12" stroke-width="2"/>
<path d="M87.4077 28.7356L79.444 42.1583L72.2424 56.0049C71.1527 58.1001 71.1929 60.6035 72.3494 62.6626L79.9919 76.2707L88.3826 89.4307C89.6523 91.422 91.8404 92.6389 94.2018 92.6669L109.808 92.8524L125.4 92.1658C127.759 92.0619 129.907 90.7754 131.112 88.7444L139.076 75.3217L146.278 61.4751C147.367 59.3799 147.327 56.8765 146.171 54.8174L138.528 41.2093L130.137 28.0493C128.868 26.058 126.68 24.8411 124.318 24.813L108.712 24.6276L93.12 25.3142C90.7606 25.418 88.6127 26.7046 87.4077 28.7356Z" stroke="#091869" stroke-opacity="0.12" stroke-width="2"/>
<path d="M91.5769 105.336L79.838 125.122L69.2226 145.532C68.1329 147.627 68.1732 150.131 69.3296 152.19L80.595 172.249L92.9632 191.647C94.2329 193.638 96.421 194.855 98.7824 194.883L121.787 195.157L144.77 194.145C147.13 194.041 149.278 192.754 150.483 190.723L162.221 170.938L172.837 150.527C173.926 148.432 173.886 145.929 172.73 143.87L161.464 123.811L149.096 104.412C147.827 102.421 145.638 101.204 143.277 101.176L120.273 100.903L97.2891 101.915C94.9298 102.018 92.7819 103.305 91.5769 105.336Z" stroke="#091869" stroke-opacity="0.12" stroke-width="2"/>
</g>
<defs>
<clipPath id="clip0_2433_328">
<rect width="131" height="212" fill="white"/>
</clipPath>
</defs>
</svg>
