<svg width="35" height="36" viewBox="0 0 35 36" fill="none" xmlns="http://www.w3.org/2000/svg">
<path d="M17.4903 35.5251C12.7096 35.5251 12.146 35.4999 10.2804 35.4183C8.82554 35.3704 7.38952 35.0747 6.03415 34.5437C3.68911 33.6311 1.83481 31.7761 0.923098 29.4307C0.412588 28.0705 0.137236 26.6332 0.108828 25.1806C0 23.3189 0 22.7086 0 17.9649C0 13.1706 0.0252637 12.6109 0.108828 10.755C0.137858 9.30433 0.4132 7.86913 0.923098 6.5107C1.83382 4.1622 3.69113 2.30559 6.03998 1.39576C7.3977 0.883109 8.83327 0.607039 10.2843 0.579551C12.1402 0.474609 12.7504 0.474609 17.4903 0.474609C22.3098 0.474609 22.8637 0.499873 24.7002 0.579551C26.155 0.607276 27.5943 0.883318 28.9561 1.39576C31.3043 2.30662 33.1613 4.16287 34.073 6.5107C34.5921 7.88892 34.8689 9.34656 34.8912 10.8191C35 12.6809 35 13.2892 35 18.031C35 22.7728 34.9728 23.3947 34.8912 25.235C34.8622 26.689 34.5862 28.1276 34.075 29.489C33.1609 31.8361 31.3038 33.6917 28.9561 34.604C27.5963 35.1135 26.1598 35.3888 24.7079 35.4183C22.852 35.5251 22.2438 35.5251 17.4903 35.5251ZM17.4242 3.55096C12.6707 3.55096 12.1771 3.57428 10.3212 3.65784C9.21346 3.67252 8.11642 3.87694 7.07773 4.26223C5.54394 4.84914 4.33026 6.05788 3.73709 7.58927C3.34883 8.63926 3.14438 9.7483 3.1327 10.8677C3.02971 12.7508 3.02971 13.2445 3.02971 17.9649C3.02971 22.629 3.0472 23.1945 3.1327 25.0659C3.1501 26.1741 3.35443 27.2713 3.73709 28.3114C4.33113 29.8417 5.5446 31.0496 7.07773 31.6365C8.11571 32.0243 9.2132 32.2288 10.3212 32.2409C12.2024 32.3497 12.6979 32.3497 17.4242 32.3497C22.1913 32.3497 22.6849 32.3264 24.5253 32.2409C25.6338 32.2274 26.7316 32.0229 27.7707 31.6365C29.2952 31.0445 30.501 29.8394 31.0938 28.3153C31.4813 27.2644 31.6858 26.1548 31.6982 25.0349H31.7196C31.8032 23.177 31.8032 22.6814 31.8032 17.9338C31.8032 13.1862 31.7818 12.6867 31.6982 10.8308C31.6808 9.72396 31.4765 8.62802 31.0938 7.58927C30.5023 6.0629 29.2964 4.85552 27.7707 4.26223C26.7319 3.87499 25.6338 3.67051 24.5253 3.65784C22.646 3.55096 22.1544 3.55096 17.4242 3.55096ZM17.4903 26.9413C13.8562 26.9437 10.5785 24.7564 9.18602 21.3997C7.79349 18.043 8.56034 14.1779 11.1289 11.6071C13.6975 9.03628 17.5619 8.26608 20.9199 9.65571C24.2778 11.0453 26.4678 14.3211 26.4686 17.9552C26.4633 22.9128 22.4479 26.9317 17.4903 26.9413ZM17.4903 12.1212C14.2704 12.1212 11.6602 14.7314 11.6602 17.9513C11.6602 21.1712 14.2704 23.7814 17.4903 23.7814C20.7102 23.7814 23.3204 21.1712 23.3204 17.9513C23.3129 14.7345 20.7071 12.1287 17.4903 12.1212ZM26.8184 10.7356C25.663 10.7313 24.7291 9.79224 24.7313 8.63676C24.7334 7.48127 25.6707 6.54569 26.8262 6.54569C27.9817 6.54569 28.919 7.48126 28.9212 8.63674C28.9217 9.19422 28.7002 9.72896 28.3056 10.1228C27.9111 10.5166 27.3759 10.7371 26.8184 10.7356Z" fill="#005295"/>
</svg>
